#Minimisation 1

#Min of complex only

&cntrl

imin=1,
maxcyc=15000,
ncyc=5000,
drms=0.5,
ntr=1,
restraintmask=":WAT,NA,CL,Na+,Cl-,IP,IM",
restraint_wt=100,
iwrap=1,
   ioutfm=1,
 ntb=1, ntc=1, ntf=1,
&end


