#MD1 simulation backbone restrained
 &cntrl
  imin=0, nstlim=100000, dt=0.002,
  irest=1, ntx=5,
  ntc=2, ntf=2, ntb=1,
  cut=8.0, iwrap=1, ig=-1,
  ntpr=5000, ntwx=5000, ntwr=5000,
  ntt=3, gamma_ln=5.0, temp0=300.0,
  ntr=1, restraintmask='!:WAT,NA,CL', restraint_wt=10.0,
  ioutfm=1,
 /
