Heat system (constant volume)
 &cntrl
  imin=0, nstlim=250000, dt=0.002,
  ntb=1, ntc=2,ntf=2,
  cut=8.0, iwrap=1,
  ntpr=10000, ntwx=10000, ntwr=10000,
  ntt=3, gamma_ln=5.0, ig=-1,
  tempi=100.0, temp0=300.0,
  ntr=1, restraintmask='!:WAT,NA,CL', restraint_wt=75.0,
  nmropt=1, ioutfm=1,
 /
 &wt TYPE='TEMP0', istep1=0, istep2=250000,
  value1=100.0, value2=300.0, /
 &wt TYPE='END' /
